{
  "photos": {
    "page": 1,
    "pages": 519366,
    "perpage": 50,
    "total": "25968282",
    "photo": [
      {
        "id": "14165267338",
        "owner": "123958078@N04",
        "secret": "c54fa08be7",
        "server": "2898",
        "farm": 3,
        "title": "day 7 - Roma & villa d'Este",
        "ispublic": 1,
        "isfriend": 0,
        "isfamily": 0
      },
      {
        "id": "14350409982",
        "owner": "33204490@N04",
        "secret": "8b1fea9cce",
        "server": "2920",
        "farm": 3,
        "title": "Eremo di Camaldoli",
        "ispublic": 1,
        "isfriend": 0,
        "isfamily": 0
      },
      {
        "id": "14372151173",
        "owner": "89676422@N05",
        "secret": "984fcde2fd",
        "server": "3859",
        "farm": 4,
        "title": "Along the river",
        "ispublic": 1,
        "isfriend": 0,
        "isfamily": 0
      },
      {
        "id": "14165237109",
        "owner": "123958078@N04",
        "secret": "2f78bb64e1",
        "server": "5503",
        "farm": 6,
        "title": "day 7 - Roma & villa d'Este",
        "ispublic": 1,
        "isfriend": 0,
        "isfamily": 0
      },
      {
        "id": "14328844966",
        "owner": "89676422@N05",
        "secret": "1ed6f94595",
        "server": "3920",
        "farm": 4,
        "title": "Temple of the Moon",
        "ispublic": 1,
        "isfriend": 0,
        "isfamily": 0
      },
      {
        "id": "14165308958",
        "owner": "9190877@N07",
        "secret": "8fdc26dc5a",
        "server": "2920",
        "farm": 3,
        "title": "Rome",
        "ispublic": 1,
        "isfriend": 0,
        "isfamily": 0
      },
      {
        "id": "14351918065",
        "owner": "123958078@N04",
        "secret": "8816b7be04",
        "server": "3912",
        "farm": 4,
        "title": "day 7 - Roma & villa d'Este",
        "ispublic": 1,
        "isfriend": 0,
        "isfamily": 0
      },
      {
        "id": "14165272758",
        "owner": "123958078@N04",
        "secret": "508b6b406a",
        "server": "3918",
        "farm": 4,
        "title": "day 7 - Roma & villa d'Este",
        "ispublic": 1,
        "isfriend": 0,
        "isfamily": 0
      },
      {
        "id": "14165427587",
        "owner": "123958078@N04",
        "secret": "d96442f8d0",
        "server": "5478",
        "farm": 6,
        "title": "day 7 - Roma & villa d'Este",
        "ispublic": 1,
        "isfriend": 0,
        "isfamily": 0
      },
      {
        "id": "14165349858",
        "owner": "33204490@N04",
        "secret": "1d21bbb96e",
        "server": "3914",
        "farm": 4,
        "title": "Foreste Casentinesi",
        "ispublic": 1,
        "isfriend": 0,
        "isfamily": 0
      },
      {
        "id": "14165236959",
        "owner": "123958078@N04",
        "secret": "21912e97e3",
        "server": "5278",
        "farm": 6,
        "title": "day 7 - Roma & villa d'Este",
        "ispublic": 1,
        "isfriend": 0,
        "isfamily": 0
      },
      {
        "id": "14165319290",
        "owner": "123958078@N04",
        "secret": "da42d303a1",
        "server": "3859",
        "farm": 4,
        "title": "day 7 - Roma & villa d'Este",
        "ispublic": 1,
        "isfriend": 0,
        "isfamily": 0
      },
      {
        "id": "14165236819",
        "owner": "123958078@N04",
        "secret": "cd778b8399",
        "server": "2939",
        "farm": 3,
        "title": "day 7 - Roma & villa d'Este",
        "ispublic": 1,
        "isfriend": 0,
        "isfamily": 0
      },
      {
        "id": "14351927265",
        "owner": "123958078@N04",
        "secret": "82bea3c395",
        "server": "2896",
        "farm": 3,
        "title": "day 7 - Roma & villa d'Este",
        "ispublic": 1,
        "isfriend": 0,
        "isfamily": 0
      },
      {
        "id": "14165329668",
        "owner": "89676422@N05",
        "secret": "5150f85aa6",
        "server": "3911",
        "farm": 4,
        "title": "Grace & Beauty",
        "ispublic": 1,
        "isfriend": 0,
        "isfamily": 0
      },
      {
        "id": "14351051614",
        "owner": "123958078@N04",
        "secret": "cbf2cb1002",
        "server": "2920",
        "farm": 3,
        "title": "day 7 - Roma & villa d'Este",
        "ispublic": 1,
        "isfriend": 0,
        "isfamily": 0
      },
      {
        "id": "14350345322",
        "owner": "123958078@N04",
        "secret": "387f78c03c",
        "server": "3880",
        "farm": 4,
        "title": "day 7 - Roma & villa d'Este",
        "ispublic": 1,
        "isfriend": 0,
        "isfamily": 0
      },
      {
        "id": "14165238099",
        "owner": "123958078@N04",
        "secret": "29ff483105",
        "server": "2940",
        "farm": 3,
        "title": "day 7 - Roma & villa d'Este",
        "ispublic": 1,
        "isfriend": 0,
        "isfamily": 0
      },
      {
        "id": "14351967985",
        "owner": "63633544@N03",
        "secret": "878d72ec6d",
        "server": "3881",
        "farm": 4,
        "title": "Photo",
        "ispublic": 1,
        "isfriend": 0,
        "isfamily": 0
      },
      {
        "id": "14165427717",
        "owner": "123958078@N04",
        "secret": "0e37dba4d7",
        "server": "3863",
        "farm": 4,
        "title": "day 7 - Roma & villa d'Este",
        "ispublic": 1,
        "isfriend": 0,
        "isfamily": 0
      },
      {
        "id": "14165425957",
        "owner": "123958078@N04",
        "secret": "c84b37a021",
        "server": "2900",
        "farm": 3,
        "title": "day 7 - Roma & villa d'Este",
        "ispublic": 1,
        "isfriend": 0,
        "isfamily": 0
      },
      {
        "id": "14348576971",
        "owner": "123958078@N04",
        "secret": "188c483835",
        "server": "3846",
        "farm": 4,
        "title": "day 7 - Roma & villa d'Este",
        "ispublic": 1,
        "isfriend": 0,
        "isfamily": 0
      },
      {
        "id": "14351916125",
        "owner": "123958078@N04",
        "secret": "a9392f1df2",
        "server": "2926",
        "farm": 3,
        "title": "day 7 - Roma & villa d'Este",
        "ispublic": 1,
        "isfriend": 0,
        "isfamily": 0
      },
      {
        "id": "14350385292",
        "owner": "124607712@N05",
        "secret": "8f7cd75013",
        "server": "2922",
        "farm": 3,
        "title": "| Quelle: http://bit.ly/1kEm1A5 http://bit.ly/1jUGNpX",
        "ispublic": 1,
        "isfriend": 0,
        "isfamily": 0
      },
      {
        "id": "14165237019",
        "owner": "123958078@N04",
        "secret": "32e23e74f3",
        "server": "3911",
        "farm": 4,
        "title": "day 7 - Roma & villa d'Este",
        "ispublic": 1,
        "isfriend": 0,
        "isfamily": 0
      },
      {
        "id": "14328850206",
        "owner": "35817790@N04",
        "secret": "fe06ca15e3",
        "server": "2928",
        "farm": 3,
        "title": "Zwarte Madonna - Black Madonna",
        "ispublic": 1,
        "isfriend": 0,
        "isfamily": 0
      },
      {
        "id": "14165286579",
        "owner": "83027181@N08",
        "secret": "383f508bbd",
        "server": "3872",
        "farm": 4,
        "title": "Kanye West - Say You Will",
        "ispublic": 1,
        "isfriend": 0,
        "isfamily": 0
      },
      {
        "id": "14328790646",
        "owner": "123958078@N04",
        "secret": "3e911e55a9",
        "server": "5273",
        "farm": 6,
        "title": "day 7 - Roma & villa d'Este",
        "ispublic": 1,
        "isfriend": 0,
        "isfamily": 0
      },
      {
        "id": "14165498637",
        "owner": "49124295@N04",
        "secret": "3317a29e19",
        "server": "5507",
        "farm": 6,
        "title": "Next day. #blackandwhite #silhouette #sky",
        "ispublic": 1,
        "isfriend": 0,
        "isfamily": 0
      },
      {
        "id": "14328833616",
        "owner": "83027181@N08",
        "secret": "ee4e86f0b1",
        "server": "2921",
        "farm": 3,
        "title": "Fleet Foxes - Sun It Rises",
        "ispublic": 1,
        "isfriend": 0,
        "isfamily": 0
      },
      {
        "id": "14165319070",
        "owner": "123958078@N04",
        "secret": "9ae827ec8b",
        "server": "3840",
        "farm": 4,
        "title": "day 7 - Roma & villa d'Este",
        "ispublic": 1,
        "isfriend": 0,
        "isfamily": 0
      },
      {
        "id": "14165290929",
        "owner": "56550886@N08",
        "secret": "e6b0751c7f",
        "server": "3892",
        "farm": 4,
        "title": "Para la cartera de la dama y el baúl del caballero. El Oca mundialista colombiano! #Suma3",
        "ispublic": 1,
        "isfriend": 0,
        "isfamily": 0
      },
      {
        "id": "14351918475",
        "owner": "123958078@N04",
        "secret": "3c965232a4",
        "server": "3882",
        "farm": 4,
        "title": "day 7 - Roma & villa d'Este",
        "ispublic": 1,
        "isfriend": 0,
        "isfamily": 0
      },
      {
        "id": "14348577151",
        "owner": "123958078@N04",
        "secret": "c1d49b4e5a",
        "server": "2902",
        "farm": 3,
        "title": "day 7 - Roma & villa d'Este",
        "ispublic": 1,
        "isfriend": 0,
        "isfamily": 0
      },
      {
        "id": "14350358932",
        "owner": "89094771@N08",
        "secret": "a7fb811ff2",
        "server": "2931",
        "farm": 3,
        "title": "dawn of a journey",
        "ispublic": 1,
        "isfriend": 0,
        "isfamily": 0
      },
      {
        "id": "14165332338",
        "owner": "56721335@N02",
        "secret": "ee03fcc54e",
        "server": "2908",
        "farm": 3,
        "title": "@mrjoneswatches Cyclops watch",
        "ispublic": 1,
        "isfriend": 0,
        "isfamily": 0
      },
      {
        "id": "14351990355",
        "owner": "62479844@N07",
        "secret": "75b99a47de",
        "server": "3902",
        "farm": 4,
        "title": "Luci e ombre",
        "ispublic": 1,
        "isfriend": 0,
        "isfamily": 0
      },
      {
        "id": "14348625991",
        "owner": "124607712@N05",
        "secret": "f24349384e",
        "server": "5591",
        "farm": 6,
        "title": "| Quelle: http://bit.ly/1kEm4fe http://bit.ly/1jUGIT3",
        "ispublic": 1,
        "isfriend": 0,
        "isfamily": 0
      },
      {
        "id": "14165321228",
        "owner": "46550096@N07",
        "secret": "fd6542737b",
        "server": "3844",
        "farm": 4,
        "title": "やっと見つけたw",
        "ispublic": 1,
        "isfriend": 0,
        "isfamily": 0
      },
      {
        "id": "14165262729",
        "owner": "62274339@N07",
        "secret": "9962bf4e86",
        "server": "5274",
        "farm": 6,
        "title": "Lane at Petrov... in bw",
        "ispublic": 1,
        "isfriend": 0,
        "isfamily": 0
      },
      {
        "id": "14348576351",
        "owner": "123958078@N04",
        "secret": "dd351f595e",
        "server": "5487",
        "farm": 6,
        "title": "day 7 - Roma & villa d'Este",
        "ispublic": 1,
        "isfriend": 0,
        "isfamily": 0
      },
      {
        "id": "14165300979",
        "owner": "60063952@N07",
        "secret": "ff84b433e2",
        "server": "3922",
        "farm": 4,
        "title": "Connected rider",
        "ispublic": 1,
        "isfriend": 0,
        "isfamily": 0
      },
      {
        "id": "14351981605",
        "owner": "89676422@N05",
        "secret": "5531df669d",
        "server": "3914",
        "farm": 4,
        "title": "Randayan Island",
        "ispublic": 1,
        "isfriend": 0,
        "isfamily": 0
      },
      {
        "id": "14351916515",
        "owner": "123958078@N04",
        "secret": "65b6bf3bdd",
        "server": "5115",
        "farm": 6,
        "title": "day 7 - Roma & villa d'Este",
        "ispublic": 1,
        "isfriend": 0,
        "isfamily": 0
      },
      {
        "id": "14328802106",
        "owner": "92153321@N00",
        "secret": "67a7d72f6c",
        "server": "3876",
        "farm": 4,
        "title": "Easby Abbey walls",
        "ispublic": 1,
        "isfriend": 0,
        "isfamily": 0
      },
      {
        "id": "14351087724",
        "owner": "31304287@N05",
        "secret": "3542097d76",
        "server": "2937",
        "farm": 3,
        "title": "Windmill and hawthorn at night. Olympus AF-10 Super. Agfa Vista Plus 200.",
        "ispublic": 1,
        "isfriend": 0,
        "isfamily": 0
      },
      {
        "id": "14348604571",
        "owner": "89676422@N05",
        "secret": "f97165d069",
        "server": "2927",
        "farm": 3,
        "title": "***",
        "ispublic": 1,
        "isfriend": 0,
        "isfamily": 0
      },
      {
        "id": "14328798166",
        "owner": "35926801@N04",
        "secret": "e8734a8d49",
        "server": "3870",
        "farm": 4,
        "title": "Gideon Leading His People across the River Jordan",
        "ispublic": 1,
        "isfriend": 0,
        "isfamily": 0
      },
      {
        "id": "14165437097",
        "owner": "124097827@N02",
        "secret": "cd21596d4c",
        "server": "5567",
        "farm": 6,
        "title": "Verona",
        "ispublic": 1,
        "isfriend": 0,
        "isfamily": 0
      },
      {
        "id": "14348588221",
        "owner": "35926801@N04",
        "secret": "892a6555ab",
        "server": "2912",
        "farm": 3,
        "title": "Lion",
        "ispublic": 1,
        "isfriend": 0,
        "isfamily": 0
      }
    ]
  },
  "stat": "ok"
}
